[
  {
    "classColor": "#8c5385",
    "className": "Warlock",
    "spellTitle": "CHILL TOUCH",
    "spellType": "Necromancy Cantrip",
    "castingTimeValue": "1 action",
    "rangeValue": "120 feet",
    "componentsValue": "V, S",
    "durationValue": "1 round",
    "spellDescription": "You create a ghostly, skeletal hand in the space of a creature within range. Make a ranged spell attack against the creature to assail it with the chill of the grave. On a hit, the target takes 1d8 necrotic damage, and it can't regain hit points until the start of your next turn. Until then, the hand clings to the target.<br>If you hit an undead target, it also has disadvantage on attack rolls against you until the end of your next turn.<br>This spell's damage increases by 1d8 when you reach 5th level (2d8), 11th level (3d8), and 17th level (4d8)."
  },
  {
    "classColor": "#857056",
    "className": "Ranger",
    "spellTitle": "CURE WOUNDS",
    "spellType": "1st level Evocation",
    "castingTimeValue": "1 action",
    "rangeValue": "Touch",
    "componentsValue": "V, S",
    "durationValue": "Instantaneous",
    "spellDescription": "A creature you touch regains a number of hit points equal to 1d8 + your spellcasting ability modifier. This spell has no effect on undead or constructs.<br>At Higher Levels: When you cast this spell using a spell slot of 2nd level or higher, the healing increases by 1d8 for each slot level above 1st."
  },
  {
    "classColor": "#3BAFB1",
    "className": "Paladin",
    "spellTitle": "COMMAND",
    "spellType": "1st level Enchantment",
    "castingTimeValue": "1 action",
    "rangeValue": "60 feet",
    "componentsValue": "V",
    "durationValue": "1 round",
    "spellDescription": "You speak a one-word command to a creature you can see within range. The target must succeed on a Wisdom saving throw or follow the command on its next turn. The spell has no effect if the target is undead, if it doesn't understand your language, or if your command is directly harmful to it.<br>Some typical commands and their effects follow. You might issue a command other than one described here. If you do so, the DM determines how the target behaves. If the target can't follow your command, the spell ends. Approach: The target moves toward you by the shortest and most direct route, ending its turn if it moves within 5 feet of you. Drop: The target drops whatever it is holding and then ends its turn. Flee: The target spends its turn moving away from you by the fastest available means. Grovel: The target falls prone and then ends its turn. Halt: The target doesn't move and takes no actions. A flying creature stays aloft, provided that it is able to do so. If it must move to stay aloft, it flies the minimum distance needed to remain in the air. At Higher Levels: When you cast this spell using a spell slot of 2nd level or higher, you can affect one additional creature for each slot level above 1st. The creatures must be within 30 feet of each other when you target them."
  }
]
